Project1: Do Food Consumption and Drink Consumption affect CO2 Emissions in Countries around the World?
…
## Rows: 193
## Columns: 5
## $ country                      <chr> "Afghanistan", "Albania", "Algeria", "An…
## $ beer_servings                <int> 0, 89, 25, 245, 217, 102, 193, 21, 261, …
## $ spirit_servings              <int> 0, 132, 0, 138, 57, 128, 25, 179, 72, 75…
## $ wine_servings                <int> 0, 54, 14, 312, 45, 45, 221, 11, 212, 19…
## $ total_litres_of_pure_alcohol <dbl> 0.0, 4.9, 0.7, 12.4, 5.9, 4.9, 8.3, 3.8,…

Tidying: Rearranging Wide/Long

## 1
food_consumption %>% pivot_wider(names_from = "food_category", 
    values_from = "co2_emmission")

## # A tibble: 1,422 x 13
##    country consumption  Pork Poultry  Beef `Lamb & Goat`  Fish  Eggs
##    <chr>         <dbl> <dbl>   <dbl> <dbl>         <dbl> <dbl> <dbl>
##  1 Argent…       10.5   37.2    NA      NA          NA   NA     NA  
##  2 Argent…       38.7   NA      41.5    NA          NA   NA     NA  
##  3 Argent…       55.5   NA      NA    1712          NA   NA     NA  
##  4 Argent…        1.56  NA      NA      NA          54.6 NA     NA  
##  5 Argent…        4.36  NA      NA      NA          NA    6.96  NA  
##  6 Argent…       11.4   NA      NA      NA          NA   NA     10.5
##  7 Argent…      195.    NA      NA      NA          NA   NA     NA  
##  8 Argent…      103.    NA      NA      NA          NA   NA     NA  
##  9 Argent…        8.77  NA      NA      NA          NA   NA     NA  
## 10 Argent…        0     NA      NA      NA          NA   NA     NA  
## # … with 1,412 more rows, and 5 more variables: `Milk - inc. cheese` <dbl>,
## #   `Wheat and Wheat Products` <dbl>, Rice <dbl>, Soybeans <dbl>, `Nuts inc.
## #   Peanut Butter` <dbl>

## 2
food_consumption %>% pivot_wider(names_from = "food_category", 
    values_from = "co2_emmission") %>% pivot_longer(3:13, names_to = "food_category", 
    values_to = "co2_emissions", values_drop_na = T)

## # A tibble: 1,430 x 4
##    country   consumption food_category            co2_emissions
##    <chr>           <dbl> <chr>                            <dbl>
##  1 Argentina       10.5  Pork                             37.2 
##  2 Argentina       38.7  Poultry                          41.5 
##  3 Argentina       55.5  Beef                           1712   
##  4 Argentina        1.56 Lamb & Goat                      54.6 
##  5 Argentina        4.36 Fish                              6.96
##  6 Argentina       11.4  Eggs                             10.5 
##  7 Argentina      195.   Milk - inc. cheese              278.  
##  8 Argentina      103.   Wheat and Wheat Products         19.7 
##  9 Argentina        8.77 Rice                             11.2 
## 10 Argentina        0    Soybeans                          0   
## # … with 1,420 more rows

## 3
drinks %>% pivot_wider(names_from = "country", values_from = "total_litres_of_pure_alcohol")

## # A tibble: 180 x 196
##    beer_servings spirit_servings wine_servings Afghanistan Albania Algeria
##            <int>           <int>         <int>       <dbl>   <dbl>   <dbl>
##  1             0               0             0           0    NA      NA  
##  2            89             132            54          NA     4.9    NA  
##  3            25               0            14          NA    NA       0.7
##  4           245             138           312          NA    NA      NA  
##  5           217              57            45          NA    NA      NA  
##  6           102             128            45          NA    NA      NA  
##  7           193              25           221          NA    NA      NA  
##  8            21             179            11          NA    NA      NA  
##  9           261              72           212          NA    NA      NA  
## 10           279              75           191          NA    NA      NA  
## # … with 170 more rows, and 190 more variables: Andorra <dbl>, Angola <dbl>,
## #   `Antigua & Barbuda` <dbl>, Argentina <dbl>, Armenia <dbl>, Australia <dbl>,
## #   Austria <dbl>, Azerbaijan <dbl>, Bahamas <dbl>, Bahrain <dbl>,
## #   Bangladesh <dbl>, Barbados <dbl>, Belarus <dbl>, Belgium <dbl>,
## #   Belize <dbl>, Benin <dbl>, Bhutan <dbl>, Bolivia <dbl>,
## #   `Bosnia-Herzegovina` <dbl>, Botswana <dbl>, Brazil <dbl>, Brunei <dbl>,
## #   Bulgaria <dbl>, `Burkina Faso` <dbl>, Burundi <dbl>, `Cote d'Ivoire` <dbl>,
## #   `Cabo Verde` <dbl>, Cambodia <dbl>, Cameroon <dbl>, Canada <dbl>, `Central
## #   African Republic` <dbl>, Chad <dbl>, Chile <dbl>, China <dbl>,
…
## 4
drinks %>% pivot_wider(names_from = "country", values_from = "total_litres_of_pure_alcohol") %>% 
    pivot_longer(4:196, names_to = "country", values_to = "total_liters_purealcohol", 
        values_drop_na = T)

## # A tibble: 193 x 5
##    beer_servings spirit_servings wine_servings country      total_liters_pureal…
##            <int>           <int>         <int> <chr>                       <dbl>
##  1             0               0             0 Afghanistan                     0
##  2             0               0             0 Bangladesh                      0
##  3             0               0             0 North Korea                     0
##  4             0               0             0 Iran                            0
##  5             0               0             0 Kuwait                          0
##  6             0               0             0 Libya                           0
##  7             0               0             0 Maldives                        0
##  8             0               0             0 Marshall Is…                    0
##  9             0               0             0 Mauritania                      0
## 10             0               0             0 Monaco                          0
## # … with 183 more rows

drinks_tidy <- drinks %>% pivot_longer(cols = ends_with("servings"), 
    names_to = "type", values_to = "servings") %>% mutate(type = str_sub(type, 
    start = 1, end = -10)) %>% arrange(country, type)

Since the data was already tidy upon download, I decided to untidy the data in each dataset and retidy it. In the first line of code (labeled 1), I took the "food_consumption" dataset and used the function "pivot_wider" to make individual columns of each food category and its CO2 emission (kg CO2/person/year). This resulted in a larger number of columns as before and many NAs throughout the whole dataset. Furthermore, to correct for the "pivot_wider" function, I used "pivot_longer" to recreate an individual column for all the food categories and their respective CO2_emissions (kg CO2/person/year). The code for this correction can be seen labeled as 2.

Furthermore, the dataset "drinks" was also untidied and retidied to be easier to read. In the third line of code (labeled 3), I took the "drinks" dataset and used the function "pivot_wider" to make individual columns of each country containing their total liter amount of pure alcohol consumption. This caused the dataset to become rather large, going from 5 columns to 196 columns and many NAs throughout the whole dataset. To correct for the "pivot_wider" function, I used "pivot_longer" to recreate an individual column for each country and their respective total liters of pure alcohol consumption per person. The code for this correction can be seen labeled as 4.

Joining/Merging Data

food_consumption %>% right_join(drinks, by = c("country"))

## # A tibble: 1,413 x 8
##    country food_category consumption co2_emmission beer_servings spirit_servings
##    <chr>   <chr>               <dbl>         <dbl>         <int>           <int>
##  1 Argent… Pork                10.5          37.2            193              25
##  2 Argent… Poultry             38.7          41.5            193              25
##  3 Argent… Beef                55.5        1712              193              25
##  4 Argent… Lamb & Goat          1.56         54.6            193              25
##  5 Argent… Fish                 4.36          6.96           193              25
##  6 Argent… Eggs                11.4          10.5            193              25
##  7 Argent… Milk - inc. …      195.          278.             193              25
##  8 Argent… Wheat and Wh…      103.           19.7            193              25
##  9 Argent… Rice                 8.77         11.2            193              25
## 10 Argent… Soybeans             0             0              193              25
## # … with 1,403 more rows, and 2 more variables: wine_servings <int>,
## #   total_litres_of_pure_alcohol <dbl>
…
## # A tibble: 1 x 4
##   country food_category co2_emmission total_litres_of_pure_alcohol
##     <dbl>         <dbl>         <dbl>                        <dbl>
## 1      NA            NA          73.2                         5.50

## 5
fullCO2dataset %>% mutate(food_category = recode(food_category, 
    Pork = "nonvegan", Poultry = "nonvegan", Beef = "nonvegan", 
    `Lamb & Goat` = "nonvegan", Fish = "nonvegan", Eggs = "nonvegan", 
    `Milk - inc. cheese` = "nonvegan", `Wheat and Wheat Products` = "vegan", 
    Rice = "vegan", Soybeans = "vegan", `Nuts inc. Peanut Butter` = "vegan")) %>% 
    group_by(food_category) %>% arrange(desc(co2_emmission))

## # A tibble: 1,413 x 8
## # Groups:   food_category [3]
##    country food_category consumption co2_emmission beer_servings spirit_servings
##    <chr>   <chr>               <dbl>         <dbl>         <int>           <int>
##  1 Argent… nonvegan             55.5         1712            193              25
##  2 Brazil  nonvegan             39.2         1211.           245             145
##  3 USA     nonvegan             36.2         1118.           249             158
##  4 Austra… nonvegan             33.9         1045.           261              72
##  5 Canada  nonvegan             30.2          933.           240             122
##  6 Luxemb… nonvegan             29.9          922.           236             133
##  7 Uruguay nonvegan             29.1          898.           115              35
##  8 Israel  nonvegan             28.8          888.            63              69
##  9 Denmark nonvegan             28.5          878.           224              81
## 10 Venezu… nonvegan             25.9          799.           333             100
## # … with 1,403 more rows, and 2 more variables: wine_servings <int>,
## #   total_litres_of_pure_alcohol <dbl>

## 6
fullCO2dataset %>% group_by(country) %>% mutate(meanCO2emissions = mean(co2_emmission))

## # A tibble: 1,413 x 9
## # Groups:   country [193]
##    country food_category consumption co2_emmission beer_servings spirit_servings
##    <chr>   <chr>               <dbl>         <dbl>         <int>           <int>
##  1 Argent… Pork                10.5          37.2            193              25
##  2 Argent… Poultry             38.7          41.5            193              25
##  3 Argent… Beef                55.5        1712              193              25
##  4 Argent… Lamb & Goat          1.56         54.6            193              25
##  5 Argent… Fish                 4.36          6.96           193              25
##  6 Argent… Eggs                11.4          10.5            193              25
##  7 Argent… Milk - inc. …      195.          278.             193              25
##  8 Argent… Wheat and Wh…      103.           19.7            193              25
##  9 Argent… Rice                 8.77         11.2            193              25
## 10 Argent… Soybeans             0             0              193              25
## # … with 1,403 more rows, and 3 more variables: wine_servings <int>,
## #   total_litres_of_pure_alcohol <dbl>, meanCO2emissions <dbl>

## 7
fullCO2dataset %>% group_by(food_category, country) %>% summarise_if(is.numeric, 
    list(Q3 = quantile), probs = 0.75, na.rm = T)

## # A tibble: 1,413 x 8
## # Groups:   food_category [12]
##    food_category country consumption_Q3 co2_emmission_Q3 beer_servings_Q3
##    <chr>         <chr>            <dbl>            <dbl>            <dbl>
##  1 Beef          Albania          22.5             694.                89
##  2 Beef          Algeria           5.6             173.                25
##  3 Beef          Angola            8.42            260.               217
##  4 Beef          Argent…          55.5            1712                193
##  5 Beef          Armenia          19.7             607.                21
##  6 Beef          Austra…          33.9            1045.               261
##  7 Beef          Austria          17.1             529.               279
##  8 Beef          Bahamas          19.9             615.               122
##  9 Beef          Bangla…           1.28             39.5                0
## 10 Beef          Barbad…          13.1             405.               143
## # … with 1,403 more rows, and 3 more variables: spirit_servings_Q3 <dbl>,
## #   wine_servings_Q3 <dbl>, total_litres_of_pure_alcohol_Q3 <dbl>
…
